{
  "id": "/required-condition",
  "instances": 1,
  "cpus": 0.05,
  "mem": 384,
  "fetch": [
    {
      "uri": "https://s3-us-west-2.amazonaws.com/lf-devops/docker.tar.gz",
      "extract": true,
      "executable": false,
      "cache": false
    }
  ],
  "backoffSeconds": 1,
  "backoffFactor": 1.15,
  "maxLaunchDelaySeconds": 3600,
  "container": {
    "type": "DOCKER",
    "docker": {
      "image": "registry.lendfoundry.com/required-condition",
      "network": "USER",
      "portMappings": [
        {
          "containerPort": 5000,
          "hostPort": 0,
          "servicePort": 10115,
          "protocol": "tcp",
          "name": "default",
          "labels": {
            "VIP_0": "/required-condition:5000"
          }
        }
      ],
      "privileged": false,
      "parameters": [
        {
          "key": "log-driver",
          "value": "fluentd"
        },
        {
          "key": "log-opt",
          "value": "fluentd-address=fluentd.marathon.l4lb.thisdcos.directory:24224"
        },
        {
          "key": "log-opt",
          "value": "tag=docker.*"
        }
      ],
      "forcePullImage": true
    }
  },
  "upgradeStrategy": {
    "minimumHealthCapacity": 1,
    "maximumOverCapacity": 1
  },
  "ipAddress": {
    "networkName": "dcos"
  },
  "unreachableStrategy": {
    "inactiveAfterSeconds": 300,
    "expungeAfterSeconds": 600
  },
  "killSelection": "YOUNGEST_FIRST",
  "labels": { 
    "HAPROXY_0_BACKEND_HEAD": "backend {backend}\r\n  balance {balance}\r\n  mode {mode}\r\n  timeout server 500ms\r\n",
    "HAPROXY_0_GROUP": "external",
    "HAPROXY_0_HTTP_BACKEND_PROXYPASS_PATH": "/v1/requiredcondition",
    "HAPROXY_0_PATH": "/v1/requiredcondition",
    "HAPROXY_0_VHOST": "api.sandbox.docitt.com"
  },
  "env": {
    "REQUIRED_CONDITION_MONGO_CONNECTION": "MONGO_CONNECTION_URL",
    "REQUIRED_CONDITION_EVENTHUB_HOST": "eventhub.marathon.l4lb.thisdcos.directory",
    "REQUIRED_CONDITION_EVENTHUB_PORT": "5000",
    "REQUIRED_CONDITION_CONFIGURATION_HOST": "configuration.marathon.l4lb.thisdcos.directory",
    "REQUIRED_CONDITION_CONFIGURATION_PORT": "5000",
    "REQUIRED_CONDITION_LOOKUPSERVICE_HOST": "lookup.marathon.l4lb.thisdcos.directory",
    "REQUIRED_CONDITION_LOOKUPSERVICE_PORT": "5000",
    "REQUIRED_CONDITION_TENANT_HOST": "tenant.marathon.l4lb.thisdcos.directory",
    "REQUIRED_CONDITION_TENANT_PORT": "5000",
    "REQUIRED_CONDITION_DOCUMENT-MANAGER_HOST": "document-manager.marathon.l4lb.thisdcos.directory",
    "REQUIRED_CONDITION_DOCUMENT-MANAGER_PORT": "5000",
    "REQUIRED_CONDITION_DOCUMENT-GENERATOR_HOST": "document-generator.marathon.l4lb.thisdcos.directory",
    "REQUIRED_CONDITION_DOCUMENT-GENERATOR_PORT": "5000",
    "REQUIRED_CONDITION_TEMPLATE-MANAGER_HOST": "template-manager.marathon.l4lb.thisdcos.directory",
    "REQUIRED_CONDITION_TEMPLATE-MANAGER_PORT": "5000",
    "REQUIRED_CONDITION_REMINDER-SERVICE_HOST": "reminderservice.marathon.l4lb.thisdcos.directory",
    "REQUIRED_CONDITION_REMINDER-SERVICE_PORT": "5000",
    "REQUIRED_CONDITION_DECISION_ENGINE_HOST": "decision-engine.marathon.l4lb.thisdcos.directory",
    "REQUIRED_CONDITION_DECISION_ENGINE_PORT": "5000",
    "REQUIRED_CONDITION_NATS_URL": "nats://nats.marathon.mesos:4222",
    "ASPNET_ENV": "Development",
    "LOG_FORMAT": "plain"
  }
}