{
  "id": "/event-store", 
  "instances": 1, 
  "cpus": 0.05,  
  "mem": 384, 
  "fetch": [
    {
      "uri": "https://s3-us-west-2.amazonaws.com/lf-devops/docker.tar.gz",
      "extract": true,
      "executable": false,
      "cache": false
    }
  ],
  "backoffSeconds": 1,
  "backoffFactor": 1.15,
  "maxLaunchDelaySeconds": 3600,
  "container": {
    "type": "DOCKER",
    "docker": {
      "image": "registry.lendfoundry.com/event-store", 
      "network": "USER",
      "portMappings": [
        {
          "containerPort": 5000,
          "hostPort": 0,
          "servicePort": 10105,
          "protocol": "tcp",
          "name": "default",
          "labels": {
            "VIP_0": "/event-store:5000" 
          }
        }
      ],
      "privileged": false,
      "parameters": [
        {
          "key": "log-driver",
          "value": "fluentd"
        },
        {
          "key": "log-opt",
          "value": "fluentd-address=fluentd.marathon.l4lb.thisdcos.directory:24224"
        },
        {
          "key": "log-opt",
          "value": "tag=docker.*"
        }
      ],
      "forcePullImage": true
    }
  },
  "upgradeStrategy": {
    "minimumHealthCapacity": 1,
    "maximumOverCapacity": 1
  },
  "ipAddress": {
    "networkName": "dcos"
  },
  "unreachableStrategy": {
    "inactiveAfterSeconds": 300,
    "expungeAfterSeconds": 600
  },
  "killSelection": "YOUNGEST_FIRST",
  "labels": { 
    "HAPROXY_0_BACKEND_HEAD": "backend {backend}\r\n  balance {balance}\r\n  mode {mode}\r\n  timeout server 500ms\r\n",
    "HAPROXY_0_GROUP": "external",
    "HAPROXY_0_HTTP_BACKEND_PROXYPASS_PATH": "/v1/eventstore",
    "HAPROXY_0_PATH": "/v1/eventstore",
    "HAPROXY_0_VHOST": "api.sandbox.docitt.com"
  },
  "env": {
    "EVENT-STORE_EVENTHUB_HOST": "eventhub.marathon.l4lb.thisdcos.directory",
    "EVENT-STORE_EVENTHUB_PORT": "5000",
    "EVENT-STORE_MONGO_CONNECTIONSTRING": "",
    "EVENT-STORE_TENANT_HOST": "tenant.marathon.l4lb.thisdcos.directory",
    "EVENT-STORE_TENANT_PORT": "5000",
    "EVENT-STORE_NATS_URL": "nats://nats.marathon.mesos:4222",
    "ASPNET_ENV": "Development",
    "LOG_FORMAT": "plain"
  }
}



